{
    "_id": "H2GX04CQXLPQHT8h",
    "data": {
        "attributes": {
            "ac": {
                "value": 24
            },
            "hardness": 14,
            "hasHealth": true,
            "hp": {
                "details": "",
                "max": 56,
                "temp": 0,
                "tempmax": 0,
                "value": 56
            },
            "stealth": {
                "details": "(expert) to detect the magical sensor; noticing the wheel has a DC of 0",
                "value": 16
            }
        },
        "creatureType": "",
        "details": {
            "description": "An ornate wheel set into a wall-divided into six segments with colored runes on each-is controlled by a magical sensor that detects any creature within 100 feet in front of it.",
            "disable": "Thievery DC 26 (expert) on the wheel to stop it from spinning, Thievery DC 22 (master) to erase each rune, or <i>dispel magic </i>(4th level; counteract DC 22) to counteract each rune",
            "isComplex": true,
            "level": 6,
            "reset": "The trap deactivates and resets if 1 minute passes without any creature moving within range of its sensor.",
            "routine": "(2 actions) On its initiative, the trap uses its first action to spin, then stops. Roll 1d6 to determine which segment is topmost when the wheel stops spinning. The wheel uses its second action to replicate the spell listed for that segment (3rd level, DC 24, spell attack roll +14). This spell's target is centered on or otherwise includes the nearest creature in the area. This increases the spell's range to 100 feet if necessary. Any spell cast by this trap is arcane.<br /><b>1</b>@Compendium[pf2e.spells-srd.Sleep]{Sleep}<br /><b>2</b>@Compendium[pf2e.spells-srd.Paralyze]{Paralyze}<br /><b>3</b>@Compendium[pf2e.spells-srd.Lightning Bolt]{Lightning Bolt} (100-foot line)<br /><b>4</b>@Compendium[pf2e.spells-srd.Blindness]{Blindness}<br /><b>5</b>@Compendium[pf2e.spells-srd.Acid Arrow]{Acid Arrow}</i><br /><b>6</b>@Compendium[pf2e.spells-srd.Ray of Enfeeblement]{Ray of Enfeeblement}"
        },
        "flavourText": "",
        "nethysUrl": "",
        "recallKnowledgeText": "",
        "saves": {
            "fortitude": {
                "rank": 0,
                "saveDetail": "",
                "value": 15
            },
            "reflex": {
                "rank": 0,
                "saveDetail": "",
                "value": 13
            },
            "will": {
                "rank": 0,
                "saveDetail": "",
                "value": 0
            }
        },
        "schema": {
            "version": {
                "value": ""
            }
        },
        "sidebarText": "",
        "source": {
            "value": ""
        },
        "statusEffects": [],
        "traits": {
            "ci": [],
            "di": {
                "custom": "",
                "selected": {},
                "value": [
                    "critical-hits",
                    "object-immunities",
                    "precision-damage"
                ]
            },
            "dr": [],
            "dv": [],
            "traits": {
                "custom": "",
                "value": [
                    "magical",
                    "mechanical"
                ]
            }
        }
    },
    "flags": {},
    "img": "icons/svg/mystery-man.svg",
    "items": [
        {
            "_id": "ZS4b3rYv9jOgbMzm",
            "data": {
                "actionCategory": {
                    "value": ""
                },
                "actionType": {
                    "value": "reaction"
                },
                "actions": {
                    "value": ""
                },
                "description": {
                    "chat": "",
                    "unidentified": "",
                    "value": "<b>Trigger</b> A creature enters the sensor's detection area.<br /><b>Effect </b>The wheel begins to spin and rolls initiative."
                },
                "rarity": {
                    "value": "common"
                },
                "requirements": {
                    "value": ""
                },
                "skill_requirements": {
                    "rank": "",
                    "skill": ""
                },
                "source": {
                    "value": ""
                },
                "traits": {
                    "custom": "",
                    "value": []
                },
                "trigger": {
                    "value": ""
                },
                "usage": {
                    "value": "held-in-one-hand"
                },
                "weapon": {
                    "value": ""
                }
            },
            "flags": {},
            "img": "systems/pf2e/icons/actions/Reaction.png",
            "name": "Wheel Spin ",
            "type": "action"
        }
    ],
    "name": "Wheel Of Misery",
    "permission": {
        "default": 0
    },
    "token": {
        "actorData": {},
        "actorId": "H2GX04CQXLPQHT8h",
        "actorLink": false,
        "bar1": {},
        "bar2": {},
        "brightLight": 0,
        "brightSight": 0,
        "dimLight": 0,
        "dimSight": 0,
        "displayBars": 0,
        "displayName": 0,
        "disposition": -1,
        "flags": {},
        "height": 1,
        "img": "icons/svg/mystery-man.svg",
        "lightAlpha": 1,
        "lightAngle": 360,
        "lockRotation": false,
        "name": "Wheel Of Misery",
        "randomImg": false,
        "rotation": 0,
        "scale": 1,
        "sightAngle": 360,
        "tint": null,
        "vision": false,
        "width": 1
    },
    "type": "hazard"
}
