{
    "_id": "ewQZ0VeL38v3qFnN",
    "data": {
        "armor": {
            "label": "AC Bonus",
            "type": "Number",
            "value": 2
        },
        "armorType": {
            "label": "Armor Category",
            "type": "String",
            "value": "light"
        },
        "brokenThreshold": {
            "value": null
        },
        "bulkCapacity": {
            "value": ""
        },
        "check": {
            "label": "Check Penalty",
            "type": "String",
            "value": "-1"
        },
        "collapsed": {
            "value": false
        },
        "size": {
            "value": "med"
        },
        "containerId": {
            "value": ""
        },
        "description": {
            "chat": "",
            "label": "Description",
            "type": "String",
            "unidentified": "",
            "value": "<p>This leather armor is reinforced with metal studs and sometimes small metal plates, providing most of the flexibility of leather armor with more robust protection.</p>"
        },
        "dex": {
            "label": "Dex Modifier Cap",
            "type": "String",
            "value": "3"
        },
        "equipped": {
            "label": "Equipped",
            "type": "Boolean",
            "value": true
        },
        "equippedBulk": {
            "value": "1"
        },
        "group": {
            "label": "Group",
            "type": "String",
            "value": "leather"
        },
        "hardness": {
            "value": null
        },
        "hp": {
            "value": null
        },
        "identified": {
            "value": true
        },
        "invested": {
            "value": false
        },
        "level": {
            "label": "Item Level",
            "type": "Number",
            "value": 0
        },
        "maxHp": {
            "value": null
        },
        "negateBulk": {
            "value": "0"
        },
        "potency": {
            "label": "Armor Potency",
            "type": "String"
        },
        "potencyRune": {
            "value": ""
        },
        "preciousMaterial": {
            "value": ""
        },
        "preciousMaterialGrade": {
            "value": ""
        },
        "price": {
            "label": "Price",
            "type": "String",
            "value": "3 gp"
        },
        "propertyRune1": {
            "value": ""
        },
        "propertyRune2": {
            "value": ""
        },
        "propertyRune3": {
            "value": ""
        },
        "propertyRune4": {
            "value": ""
        },
        "quantity": {
            "label": "Quantity",
            "type": "Number",
            "value": 1
        },
        "rarity": {
            "value": "common"
        },
        "resiliencyRune": {
            "value": ""
        },
        "resilient": {
            "label": "Resilient",
            "type": "String"
        },
        "rules": [],
        "source": {
            "label": "Source",
            "type": "String",
            "value": ""
        },
        "speed": {
            "label": "Speed Penalty",
            "type": "String",
            "value": ""
        },
        "stackGroup": {
            "value": ""
        },
        "strength": {
            "label": "Required Strength",
            "type": "String",
            "value": "12"
        },
        "traits": {
            "label": "Traits",
            "rarity": {
                "value": "common"
            },
            "type": "String",
            "value": ""
        },
        "usage": {
            "value": "wornarmor"
        },
        "weight": {
            "label": "Bulk",
            "type": "Number",
            "value": "2"
        }
    },
    "effects": [],
    "flags": {},
    "img": "systems/pf2e/icons/equipment/armor/studded-leather-armor.jpg",
    "name": "Studded Leather Armor",
    "permission": {
        "default": 0
    },
    "type": "armor"
}
