{
    "_id": "R0nGdOlc4KCtdJJr",
    "data": {
        "actionCategory": {
            "value": ""
        },
        "actionType": {
            "value": "passive"
        },
        "actions": {
            "value": ""
        },
        "description": {
            "chat": "",
            "unidentified": "",
            "value": "<p>The flow of magic and your training combine to help you avoid attacks. Your proficiency rank in unarmored defense increases to expert.</p>"
        },
        "featType": {
            "value": "classfeature"
        },
        "level": {
            "value": "13"
        },
        "prerequisites": {
            "value": ""
        },
        "rarity": {
            "value": "common"
        },
        "source": {
            "value": ""
        },
        "traits": {
            "custom": "",
            "value": [
                "wizard"
            ]
        }
    },
    "flags": {},
    "img": "systems/pf2e/icons/features/classes/defensive-robes.jpg",
    "name": "Defensive Robes (Wizard)",
    "permission": {
        "default": 0
    },
    "type": "feat"
}
