{
    "_id": "ZW09VPBA4GhuYBbg",
    "data": {
        "actionCategory": {
            "value": ""
        },
        "actionType": {
            "value": "passive"
        },
        "actions": {
            "value": ""
        },
        "description": {
            "chat": "",
            "unidentified": "",
            "value": "<p>Your foes struggle to pass your defenses. You aren't flat-footed to hidden, undetected, or flanking creatures of your level or lower, or creatures of your level or lower using surprise attack. However, they can still help their allies flank.</p>"
        },
        "featType": {
            "value": "classfeature"
        },
        "level": {
            "value": "3"
        },
        "prerequisites": {
            "value": ""
        },
        "rarity": {
            "value": "common"
        },
        "source": {
            "value": ""
        },
        "traits": {
            "custom": "",
            "value": [
                "barbarian"
            ]
        }
    },
    "flags": {},
    "img": "systems/pf2e/icons/features/classes/deny-advantage.jpg",
    "name": "Deny Advantage (Barbarian)",
    "permission": {
        "default": 0
    },
    "type": "feat"
}
