{
    "_id": "lYmeakwbBjqKyLHI",
    "data": {
        "actionCategory": {
            "value": ""
        },
        "actionType": {
            "value": "passive"
        },
        "actions": {
            "value": ""
        },
        "description": {
            "chat": "",
            "unidentified": "",
            "value": "<p>You notice things almost impossible for an ordinary person to detect. Your proficiency rank for Perception increases to legendary.</p>"
        },
        "featType": {
            "value": "classfeature"
        },
        "level": {
            "value": "15"
        },
        "prerequisites": {
            "value": ""
        },
        "rarity": {
            "value": "common"
        },
        "source": {
            "value": ""
        },
        "traits": {
            "custom": "",
            "rarity": {
                "value": "common"
            },
            "value": [
                "ranger"
            ]
        }
    },
    "flags": {},
    "img": "systems/pf2e/icons/features/classes/incredible-sense.jpg",
    "name": "Incredible Senses (Ranger)",
    "permission": {
        "default": 0
    },
    "type": "feat"
}
