{
    "_id": "RVZC4wVy5B5W2OeS",
    "data": {
        "actionCategory": {
            "value": ""
        },
        "actionType": {
            "value": "passive"
        },
        "actions": {
            "value": ""
        },
        "description": {
            "chat": "",
            "unidentified": "",
            "value": "<p>You have honed your abilities as a hunter to incredible levels. Your proficiency rank for your ranger class DC increases to master. When using a ranged weapon that you have master proficiency in, you can ignore the penalty if attacking your hunted prey within the weapon's second and third range increments.<br /></p>\n<p>If you have master proficiency in Perception, you gain a +4 circumstance bonus to Perception checks when you Seek your prey, and if you have master proficiency in Survival, you gain a +4 circumstance bonus to Survival checks when you Track your prey. You also gain an additional benefit depending on your hunter's edge.<br /></p>\n<p>See specific hunter's edges for more information</p>"
        },
        "featType": {
            "value": "classfeature"
        },
        "level": {
            "value": "17"
        },
        "prerequisites": {
            "value": ""
        },
        "rarity": {
            "value": "common"
        },
        "source": {
            "value": ""
        },
        "traits": {
            "custom": "",
            "value": [
                "ranger"
            ]
        }
    },
    "flags": {},
    "img": "systems/pf2e/icons/features/classes/masterful-hunter.jpg",
    "name": "Masterful Hunter",
    "permission": {
        "default": 0
    },
    "type": "feat"
}
