{
    "_id": "HHVQDp61ehcpdiU8",
    "data": {
        "actionCategory": {
            "value": ""
        },
        "actionType": {
            "value": "passive"
        },
        "actions": {
            "value": null
        },
        "description": {
            "chat": "",
            "unidentified": "",
            "value": "<p>You can see in darkness and dim light just as well as you can see in bright light, though your vision in darkness is in black and white.</p>"
        },
        "featType": {
            "value": "ancestryfeature"
        },
        "level": {
            "value": "1"
        },
        "prerequisites": {
            "value": null
        },
        "rarity": {
            "value": "common"
        },
        "rules": [],
        "source": {
            "value": ""
        },
        "traits": {
            "custom": "",
            "rarity": {
                "value": "common"
            },
            "value": []
        }
    },
    "effects": [],
    "flags": {},
    "img": "systems/pf2e/icons/features/ancestry/darkvision.jpg",
    "name": "Darkvision",
    "permission": {
        "default": 0
    },
    "type": "feat"
}
