{
    "_id": "dwKCwwtWetvPmJks",
    "data": {
        "actionCategory": {
            "value": ""
        },
        "actionType": {
            "value": "passive"
        },
        "actions": {
            "value": null
        },
        "description": {
            "chat": "",
            "unidentified": "",
            "value": "<p>You were born in a rain forest with only tangles of trees<br />providing protection from torrential rainstorms and flash<br />floods. You've learned to move adeptly through jungle<br />terrain and resist the various ailments common in humid<br />environs. You gain a +2 circumstance bonus to Athletics<br />checks to @Compendium[pf2e.actionspf2e.Climb]{Climb}or @Compendium[pf2e.actionspf2e.Swim]{Swim}and a +1 circumstance bonus to<br />saving throws against diseases.</p>"
        },
        "featType": {
            "value": "ancestryfeature"
        },
        "level": {
            "value": "1"
        },
        "prerequisites": {
            "value": null
        },
        "rarity": {
            "value": "common"
        },
        "rules": [],
        "source": {
            "value": ""
        },
        "traits": {
            "custom": "",
            "rarity": {
                "value": "common"
            },
            "value": [
                "orc"
            ]
        }
    },
    "effects": [],
    "flags": {},
    "img": "systems/pf2e/icons/features/ancestry/rainfall-orc.jpg",
    "name": "Rainfall Orc",
    "permission": {
        "default": 0
    },
    "type": "feat"
}
