{
    "_id": "qM566kCXljkOpocA",
    "data": {
        "actionCategory": {
            "value": ""
        },
        "actionType": {
            "value": "passive"
        },
        "actions": {
            "value": null
        },
        "description": {
            "chat": "",
            "unidentified": "",
            "value": "<p><span id=\"docs-internal-guid-86da5438-7fff-95ca-40da-9c43890897f2\"></span></p>\n<p dir=\"ltr\">Your talons are every bit as sharp and strong as your beak. You gain a talon unarmed attack that deals <a class=\"inline-roll roll\" title=\"slashing\" data-mode=\"roll\" data-flavor=\"slashing\" data-formula=\"1d4\"><i class=\"fas fa-dice-d20\"></i> 1d4</a> slashing damage. Your talons are in the brawling group, and have the agile, finesse, unarmed and versatile piercing traits.</p>"
        },
        "featType": {
            "value": "ancestryfeature"
        },
        "level": {
            "value": "1"
        },
        "prerequisites": {
            "value": null
        },
        "rarity": {
            "value": "common"
        },
        "rules": [],
        "source": {
            "value": ""
        },
        "traits": {
            "custom": "",
            "rarity": {
                "value": "common"
            },
            "value": [
                "tengu"
            ]
        }
    },
    "effects": [],
    "flags": {},
    "img": "systems/pf2e/icons/features/ancestry/taloned-tengu.jpg",
    "name": "Taloned Tengu",
    "permission": {
        "default": 0
    },
    "type": "feat"
}
