{
    "_id": "nW1gi13E62Feto2w",
    "data": {
        "actionCategory": {
            "value": ""
        },
        "actionType": {
            "value": "passive"
        },
        "actions": {
            "value": null
        },
        "description": {
            "chat": "",
            "unidentified": "",
            "value": "<p>You're adapted to life in the forest or the deep jungle, and you know how to climb trees and use foliage to your advantage. When @Compendium[pf2e.actionspf2e.Climb]{Climbing} trees, vines, and other foliage, you move at half your Speed on a success and at full Speed on a critical success (and you move at full Speed on a success if you have @Compendium[pf2e.feats-srd.Quick Climb]{Quick Climb}). This doesn't affect you if you're using a climb Speed.</p>\n<p>You can always use the @Compendium[pf2e.actionspf2e.Take Cover]{Take Cover}action when you are within forest terrain to gain cover, even if you're not next to an obstacle you can take cover behind.</p>"
        },
        "featType": {
            "value": "ancestryfeature"
        },
        "level": {
            "value": "1"
        },
        "prerequisites": {
            "value": null
        },
        "rarity": {
            "value": "common"
        },
        "rules": [],
        "source": {
            "value": ""
        },
        "traits": {
            "custom": "",
            "rarity": {
                "value": "common"
            },
            "value": [
                "elf"
            ]
        }
    },
    "effects": [],
    "flags": {},
    "img": "systems/pf2e/icons/features/ancestry/woodland-elf.jpg",
    "name": "Woodland Elf",
    "permission": {
        "default": 0
    },
    "type": "feat"
}
